Module 15 Importing data | DataBOOM: the canon for data science
…
To become agile in reading various types of data into R, here are five key functions you should know:

readr::read_csv()

Reading in data is simple and easy if your data are saved as a .csv, a comma-separated file. You can find functions for reading all sorts of file types into R, but the quickest way to begin working with your own data in R is to maintain that data in .csv’s.

The function read_csv(), from a package named readr, becomes useful when you begin working with (1) data from the internet, (2) data within the tidyverse, which you will be introduced to in the next module, and/or (2) very large dataset, since it reads data much more quickly and provides progress updates along the way.

Here’s an example of reading a file directly from the internet …

library(readr)
df <- read_csv('https://raw.githubusercontent.com/databrew/intro-to-data-science/main/data/deaths.csv')
df
# A tibble: 891 × 12
   PassengerId Survived Pclass Name   Sex     Age SibSp Parch Ticket  Fare Cabin
         <dbl>    <dbl>  <dbl> <chr>  <chr> <dbl> <dbl> <dbl> <chr>  <dbl> <chr>
 1           1        0      3 Braun… male     22     1     0 A/5 2…  7.25 <NA> 
 2           2        1      1 Cumin… fema…    38     1     0 PC 17… 71.3  C85  
 3           3        1      3 Heikk… fema…    26     0     0 STON/…  7.92 <NA> 
 4           4        1      1 Futre… fema…    35     1     0 113803 53.1  C123 
 5           5        0      3 Allen… male     35     0     0 373450  8.05 <NA> 
 6           6        0      3 Moran… male     NA     0     0 330877  8.46 <NA> 
 7           7        0      1 McCar… male     54     0     0 17463  51.9  E46  
 8           8        0      3 Palss… male      2     3     1 349909 21.1  <NA> 
 9           9        1      3 Johns… fema…    27     0     2 347742 11.1  <NA> 
10          10        1      2 Nasse… fema…    14     1     0 237736 30.1  <NA> 
# … with 881 more rows, and 1 more variable: Embarked <chr>
…
